…
#### Describe the raw data.

``` r
homicides =  
  homicides |> 
  unite("city_state", city:state, sep = ", ", remove = FALSE)
homicides |> 
  group_by(city) |> 
  summarize(total_count = n())
```

    ## # A tibble: 50 × 2
    ##    city        total_count
    ##    <chr>             <int>
    ##  1 Albuquerque         378
    ##  2 Atlanta             973
    ##  3 Baltimore          2827
    ##  4 Baton Rouge         424
    ##  5 Birmingham          800
    ##  6 Boston              614
    ##  7 Buffalo             521
    ##  8 Charlotte           687
    ##  9 Chicago            5535
    ## 10 Cincinnati          694
    ## # ℹ 40 more rows

``` r
homicides |> 
  filter(disposition == "Closed without arrest" | disposition =="Open/No arrest") |> 
  group_by(city) |> 
  summarize(count = n())
```

    ## # A tibble: 50 × 2
    ##    city        count
    ##    <chr>       <int>
    ##  1 Albuquerque   146
    ##  2 Atlanta       373
    ##  3 Baltimore    1825
    ##  4 Baton Rouge   196
    ##  5 Birmingham    347
    ##  6 Boston        310
    ##  7 Buffalo       319
    ##  8 Charlotte     206
    ##  9 Chicago      4073
    ## 10 Cincinnati    309
    ## # ℹ 40 more rows
…
